Reproducible Data Analysis Project
…
df4 has last 3 columns 23, 24, 25 and these appears to be bogus columns and there is need to deleted these columns. The tidy df4 shall be as under:

df4 = select(df4,-c(...23:...25))
df4

## # A tibble: 30 x 22
##       Rk Team    Age     W     L    PW    PL   MOV   SOS   SRS  ORtg  DRtg  NRtg
##    <dbl> <chr> <dbl> <dbl> <dbl> <dbl> <dbl> <dbl> <dbl> <dbl> <dbl> <dbl> <dbl>
##  1     1 Milw  26.9    60    22    61    21  8.87 -0.82  8.04  114.  105.   8.6
##  2     2 Gold  28.4    57    25    56    26  6.46 -0.04  6.42  116.  110.   6.4
##  3     3 Toro  27.3    58    24    56    26  6.09 -0.6   5.49  113.  107.   6  
##  4     4 Utah  27.3    50    32    54    28  5.26  0.03  5.28  111.  106.   5.2
##  5     5 Hous  29.2    53    29    53    29  4.77  0.19  4.96  116.  111.   4.8
##  6     6 Port  26.2    53    29    51    31  4.2   0.24  4.43  115.  110.   4.2
##  7     7 Denv  24.9    54    28    51    31  3.95  0.24  4.19  113   109.   4.1
##  8     8 Bost  25.7    49    33    52    30  4.44 -0.54  3.9   112.  108.   4.4
##  9     9 Okla  25.7    49    33    50    32  3.4   0.15  3.56  110.  107    3.3
## 10    10 Indi  27      48    34    50    32  3.33 -0.57  2.76  110.  106.   3.4
## #  with 20 more rows, and 9 more variables: Pace <dbl>, FTr <dbl>, 3PAr <dbl>,
## #   TS% <dbl>, eFG% <dbl>, TOV% <dbl>, ORB% <dbl>, FT/FGA <dbl>, DRB% <dbl>
…
